[
  {
    "name": "Small Widget",
    "listPrice": 12.99,
    "availableQty": 100
  },
  {
    "name": "Medium Widget",
    "listPrice": 16.99,
    "availableQty": 100
  },
  {
    "name": "Large Widget",
    "listPrice": 19.99,
    "availableQty": 100
  },
  {
    "name": "Extra-Large Widget",
    "listPrice": 26.99,
    "availableQty": 100
  },
  {
    "name": "2XL Widget",
    "listPrice": 33.99,
    "availableQty": 100
  }
]
